{
	"version": 1,
	"license": "CC-BY-SA-3.0",
  "copyright": "Taken from cev-eris at https://github.com/discordia-space/CEV-Eris/commit/740ff31a81313086cf16761f3677cf1e2ab46c93",
	"size": {
		"x": 32,
		"y": 32
	},
	"states": [
		{
			"name": "brutepack"
		},
		{
			"name": "brutepack-inhand-left",
			"directions": 4
		},
		{
			"name": "brutepack-inhand-right",
			"directions": 4
		},
		{
			"name": "cast"
		},
		{
			"name": "gauze"
		},
		{
			"name": "morphine"
		},
		{
			"name": "ointment"
		},
		{
			"name": "ointment-inhand-left",
			"directions": 4
		},
		{
			"name": "ointment-inhand-right",
			"directions": 4
		},
        {
            "name": "bloodpack"
        }
	]
}
